[
  {
  "quantity": 2,
  "item_id": 3,
  "cart_id": 1
  },
  {
  "quantity": 3,
  "item_id": 4,
  "cart_id": 1
  },
  {
  "quantity": 8,
  "item_id": 5,
  "cart_id": 1
  },
  {
  "quantity": 11,
  "item_id": 6,
  "cart_id": 1
  },
  {
  "quantity": 6,
  "item_id": 7,
  "cart_id": 1
  },
  {
  "quantity": 8,
  "item_id": 8,
  "cart_id": 1
  },
  {
  "quantity": 1,
  "item_id": 9,
  "cart_id": 1
  },
  {
  "quantity": 5,
  "item_id": 10,
  "cart_id": 1
  }
]
